category_title	audio_uri	phrase_title	phrase_loc_title	language	start	duration
Greetings	spotify:track:01UpYESbVXq1ROfERPHu9v	Greetings	Greetings	English	0:18:00	1
Greetings	spotify:track:01UpYESbVXq1ROfERPHu9v	Greetings	Saludos	Spanish	0:21:00	2
Greetings	spotify:track:01UpYESbVXq1ROfERPHu9v	Hello	Hello	English	0:30:00	1
Greetings	spotify:track:01UpYESbVXq1ROfERPHu9v	Hello	¡Hola	Spanish	0:33:00	1
Greetings	spotify:track:01UpYESbVXq1ROfERPHu9v	Thank you very much	Thank you very much	English	0:38:00	2
Greetings	spotify:track:01UpYESbVXq1ROfERPHu9v	Thank you very much	Muchas gracias	Spanish	0:40:00	3
Greetings	spotify:track:01UpYESbVXq1ROfERPHu9v	Please	Please	English	0:48:00	1
Greetings	spotify:track:01UpYESbVXq1ROfERPHu9v	Please	Por favor	Spanish	0:51:00	2
Greetings	spotify:track:01UpYESbVXq1ROfERPHu9v	Excuse me	Excuse me	English	0:54:00	1
Greetings	spotify:track:01UpYESbVXq1ROfERPHu9v	Excuse me	Disculpe	Spanish	1:00:00	2
Greetings	spotify:track:01UpYESbVXq1ROfERPHu9v	How are you?	How are you?	English	1:05:00	1
Greetings	spotify:track:01UpYESbVXq1ROfERPHu9v	How are you?	¿Cómo estás?	Spanish	1:09:00	1
Greetings	spotify:track:01UpYESbVXq1ROfERPHu9v	Welcome	Welcome	English	1:14:00	1
Greetings	spotify:track:01UpYESbVXq1ROfERPHu9v	Welcome	bienvenida	Spanish	1:17:00	1
Greetings	spotify:track:01UpYESbVXq1ROfERPHu9v	Good Morning	Good Morning	English	1:18:00	1
Greetings	spotify:track:01UpYESbVXq1ROfERPHu9v	Good Morning	¡Buenos Días	Spanish	1:23:00	2
Greetings	spotify:track:01UpYESbVXq1ROfERPHu9v	Good Evening	Good Evening	English	1:28:00	2
Greetings	spotify:track:01UpYESbVXq1ROfERPHu9v	Good Evening	Buenas Noches	Spanish	1:36:00	1
Greetings	spotify:track:01UpYESbVXq1ROfERPHu9v	Good Bye	Good Bye	English	1:38:00	1
Greetings	spotify:track:01UpYESbVXq1ROfERPHu9v	Good Bye	Adiós	Spanish	1:44:00	1
Greetings	spotify:track:01UpYESbVXq1ROfERPHu9v	See you later	See you later	English	1:46:00	1
Greetings	spotify:track:01UpYESbVXq1ROfERPHu9v	See you later	¡Hasta luego	Spanish	1:50:00	2
Personal Information	spotify:track:0VUwwHg5VvRZPAfF8MfkXQ	Personal information	Personal information	English	0:02:00	2
Personal Information	spotify:track:0VUwwHg5VvRZPAfF8MfkXQ	Personal information	Información personal	Spanish	0:08:00	3
Personal Information	spotify:track:0VUwwHg5VvRZPAfF8MfkXQ	My name is	My name is	English	0:16:00	2
Personal Information	spotify:track:0VUwwHg5VvRZPAfF8MfkXQ	My name is	Mi nombre es	Spanish	0:21:00	1
Personal Information	spotify:track:0VUwwHg5VvRZPAfF8MfkXQ	It's nice to meet you	It's nice to meet you	English	0:29:00	2
Personal Information	spotify:track:0VUwwHg5VvRZPAfF8MfkXQ	It's nice to meet you	Es un placer conocerte	Spanish	0:34:00	1
Personal Information	spotify:track:0VUwwHg5VvRZPAfF8MfkXQ	Do you live here? 	Do you live here? 	English	0:39:00	2
Personal Information	spotify:track:0VUwwHg5VvRZPAfF8MfkXQ	Do you live here? 	¿Vive usted aquí?	Spanish	0:47:00	2
Personal Information	spotify:track:0VUwwHg5VvRZPAfF8MfkXQ	I am from England	I am from England	English	0:54:00	2
Personal Information	spotify:track:0VUwwHg5VvRZPAfF8MfkXQ	I am from England	Soy de Inglaterra	Spanish	0:56:00	3
Personal Information	spotify:track:0VUwwHg5VvRZPAfF8MfkXQ	I am here on holiday	I am here on holiday	English	1:07:00	2
Personal Information	spotify:track:0VUwwHg5VvRZPAfF8MfkXQ	I am here on holiday	Estoy aquí de vacaciones	Spanish	1:09:00	3
Personal Information	spotify:track:0VUwwHg5VvRZPAfF8MfkXQ	I am here on business	I am here on business	English	1:16:00	3
Personal Information	spotify:track:0VUwwHg5VvRZPAfF8MfkXQ	I am here on business	Estoy aquí por negocios	Spanish	1:24:00	4
Personal Information	spotify:track:0VUwwHg5VvRZPAfF8MfkXQ	What do you do?	What do you do?	English	1:35:00	2
Personal Information	spotify:track:0VUwwHg5VvRZPAfF8MfkXQ	What do you do?	¿Qué hacer?	Spanish	1:37:00	3
Personal Information	spotify:track:0VUwwHg5VvRZPAfF8MfkXQ	I'm here to study	I'm here to study	English	1:47:00	1
Personal Information	spotify:track:0VUwwHg5VvRZPAfF8MfkXQ	I'm here to study	Yo estoy aquí para estudiar	Spanish	1:48:00	5
Personal Information	spotify:track:0VUwwHg5VvRZPAfF8MfkXQ	What are you studying?	What are you studying?	English	1:56:00	2
Personal Information	spotify:track:0VUwwHg5VvRZPAfF8MfkXQ	What are you studying?	¿Qué estudias?	Spanish	2:02:00	4
Personal Information	spotify:track:0VUwwHg5VvRZPAfF8MfkXQ	How old are you?	How old are you?	English	2:12:00	1
Personal Information	spotify:track:0VUwwHg5VvRZPAfF8MfkXQ	How old are you?	¿Cuántos años tienes?	Spanish	2:13:00	3
Personal Information	spotify:track:0VUwwHg5VvRZPAfF8MfkXQ	I'm single, are you?	I'm single, are you?	English	2:19:00	2
Personal Information	spotify:track:0VUwwHg5VvRZPAfF8MfkXQ	I'm single, are you?	No tengo pareja, ¿verdad?	Spanish	2:26:00	4
Greetings	spotify:track:3LPzq1BLX8EpCu446T4jW0	Greetings	Greetings	English	0:08:00	1
Greetings	spotify:track:3LPzq1BLX8EpCu446T4jW0	Greetings	Salutations	French	0:11:00	2
Greetings	spotify:track:3LPzq1BLX8EpCu446T4jW0	Hello	Hello	English	0:20:00	1
Greetings	spotify:track:3LPzq1BLX8EpCu446T4jW0	Hello	Salut	French	0:23:00	1
Greetings	spotify:track:3LPzq1BLX8EpCu446T4jW0	Thank you very much	Thank you very much	English	0:25:00	2
Greetings	spotify:track:3LPzq1BLX8EpCu446T4jW0	Thank you very much	Merci beaucoup	French	0:31:00	3
Greetings	spotify:track:3LPzq1BLX8EpCu446T4jW0	Please	Please	English	0:38:00	1
Greetings	spotify:track:3LPzq1BLX8EpCu446T4jW0	Please	S'il vous plaît	French	0:39:00	3
Greetings	spotify:track:3LPzq1BLX8EpCu446T4jW0	Excuse me	Excuse me	English	0:46:00	1
Greetings	spotify:track:3LPzq1BLX8EpCu446T4jW0	Excuse me	Excusez-moi	French	0:51:00	1
Greetings	spotify:track:3LPzq1BLX8EpCu446T4jW0	How are you?	How are you?	English	0:55:00	1
Greetings	spotify:track:3LPzq1BLX8EpCu446T4jW0	How are you?	Comment allez-vous?	French	0:59:00	1
Greetings	spotify:track:3LPzq1BLX8EpCu446T4jW0	Welcome	Welcome	English	1:03:00	1
Greetings	spotify:track:3LPzq1BLX8EpCu446T4jW0	Welcome	Bienvenue	French	1:06:00	2
Greetings	spotify:track:3LPzq1BLX8EpCu446T4jW0	Good Morning	Good Morning	English	1:10:00	2
Greetings	spotify:track:3LPzq1BLX8EpCu446T4jW0	Good Morning	Bonjour	French	1:13:00	2
Greetings	spotify:track:3LPzq1BLX8EpCu446T4jW0	Good Evening	Good Evening	English	1:18:00	1
Greetings	spotify:track:3LPzq1BLX8EpCu446T4jW0	Good Evening	Bonsoir	French	1:22:00	2
Greetings	spotify:track:3LPzq1BLX8EpCu446T4jW0	Good Bye	Good Bye	English	1:27:00	1
Greetings	spotify:track:3LPzq1BLX8EpCu446T4jW0	Good Bye	Au revoir	French	1:32:00	2
Greetings	spotify:track:3LPzq1BLX8EpCu446T4jW0	See you later	See you later	English	1:35:00	2
Greetings	spotify:track:3LPzq1BLX8EpCu446T4jW0	See you later	A tout à l'heure	French	1:43:00	2