{
  "track_by_id": {
    "0": "spotify:track:01UpYESbVXq1ROfERPHu9v",
    "1": "spotify:track:01UpYESbVXq1ROfERPHu9v",
    "2": "spotify:track:01UpYESbVXq1ROfERPHu9v",
    "3": "spotify:track:01UpYESbVXq1ROfERPHu9v",
    "4": "spotify:track:01UpYESbVXq1ROfERPHu9v",
    "5": "spotify:track:01UpYESbVXq1ROfERPHu9v",
    "6": "spotify:track:01UpYESbVXq1ROfERPHu9v",
    "7": "spotify:track:01UpYESbVXq1ROfERPHu9v",
    "8": "spotify:track:01UpYESbVXq1ROfERPHu9v",
    "9": "spotify:track:01UpYESbVXq1ROfERPHu9v",
    "10": "spotify:track:01UpYESbVXq1ROfERPHu9v",
    "11": "spotify:track:01UpYESbVXq1ROfERPHu9v",
    "12": "spotify:track:01UpYESbVXq1ROfERPHu9v",
    "13": "spotify:track:01UpYESbVXq1ROfERPHu9v",
    "14": "spotify:track:01UpYESbVXq1ROfERPHu9v",
    "15": "spotify:track:01UpYESbVXq1ROfERPHu9v",
    "16": "spotify:track:01UpYESbVXq1ROfERPHu9v",
    "17": "spotify:track:01UpYESbVXq1ROfERPHu9v",
    "18": "spotify:track:01UpYESbVXq1ROfERPHu9v",
    "19": "spotify:track:01UpYESbVXq1ROfERPHu9v",
    "20": "spotify:track:01UpYESbVXq1ROfERPHu9v",
    "21": "spotify:track:01UpYESbVXq1ROfERPHu9v",
    "22": "spotify:track:0VUwwHg5VvRZPAfF8MfkXQ",
    "23": "spotify:track:0VUwwHg5VvRZPAfF8MfkXQ",
    "24": "spotify:track:0VUwwHg5VvRZPAfF8MfkXQ",
    "25": "spotify:track:0VUwwHg5VvRZPAfF8MfkXQ",
    "26": "spotify:track:0VUwwHg5VvRZPAfF8MfkXQ",
    "27": "spotify:track:0VUwwHg5VvRZPAfF8MfkXQ",
    "28": "spotify:track:0VUwwHg5VvRZPAfF8MfkXQ",
    "29": "spotify:track:0VUwwHg5VvRZPAfF8MfkXQ",
    "30": "spotify:track:0VUwwHg5VvRZPAfF8MfkXQ",
    "31": "spotify:track:0VUwwHg5VvRZPAfF8MfkXQ",
    "32": "spotify:track:0VUwwHg5VvRZPAfF8MfkXQ",
    "33": "spotify:track:0VUwwHg5VvRZPAfF8MfkXQ",
    "34": "spotify:track:0VUwwHg5VvRZPAfF8MfkXQ",
    "35": "spotify:track:0VUwwHg5VvRZPAfF8MfkXQ",
    "36": "spotify:track:0VUwwHg5VvRZPAfF8MfkXQ",
    "37": "spotify:track:0VUwwHg5VvRZPAfF8MfkXQ",
    "38": "spotify:track:0VUwwHg5VvRZPAfF8MfkXQ",
    "39": "spotify:track:0VUwwHg5VvRZPAfF8MfkXQ",
    "40": "spotify:track:0VUwwHg5VvRZPAfF8MfkXQ",
    "41": "spotify:track:0VUwwHg5VvRZPAfF8MfkXQ",
    "42": "spotify:track:0VUwwHg5VvRZPAfF8MfkXQ",
    "43": "spotify:track:0VUwwHg5VvRZPAfF8MfkXQ",
    "44": "spotify:track:0VUwwHg5VvRZPAfF8MfkXQ",
    "45": "spotify:track:0VUwwHg5VvRZPAfF8MfkXQ",
    "46": "spotify:track:3LPzq1BLX8EpCu446T4jW0",
    "47": "spotify:track:3LPzq1BLX8EpCu446T4jW0",
    "48": "spotify:track:3LPzq1BLX8EpCu446T4jW0",
    "49": "spotify:track:3LPzq1BLX8EpCu446T4jW0",
    "50": "spotify:track:3LPzq1BLX8EpCu446T4jW0",
    "51": "spotify:track:3LPzq1BLX8EpCu446T4jW0",
    "52": "spotify:track:3LPzq1BLX8EpCu446T4jW0",
    "53": "spotify:track:3LPzq1BLX8EpCu446T4jW0",
    "54": "spotify:track:3LPzq1BLX8EpCu446T4jW0",
    "55": "spotify:track:3LPzq1BLX8EpCu446T4jW0",
    "56": "spotify:track:3LPzq1BLX8EpCu446T4jW0",
    "57": "spotify:track:3LPzq1BLX8EpCu446T4jW0",
    "58": "spotify:track:3LPzq1BLX8EpCu446T4jW0",
    "59": "spotify:track:3LPzq1BLX8EpCu446T4jW0",
    "60": "spotify:track:3LPzq1BLX8EpCu446T4jW0",
    "61": "spotify:track:3LPzq1BLX8EpCu446T4jW0",
    "62": "spotify:track:3LPzq1BLX8EpCu446T4jW0",
    "63": "spotify:track:3LPzq1BLX8EpCu446T4jW0",
    "64": "spotify:track:3LPzq1BLX8EpCu446T4jW0",
    "65": "spotify:track:3LPzq1BLX8EpCu446T4jW0",
    "66": "spotify:track:3LPzq1BLX8EpCu446T4jW0",
    "67": "spotify:track:3LPzq1BLX8EpCu446T4jW0"
  },
  "start_by_id": {
    "0": 18,
    "1": 21,
    "2": 30,
    "3": 33,
    "4": 38,
    "5": 40,
    "6": 48,
    "7": 51,
    "8": 54,
    "9": 60,
    "10": 65,
    "11": 69,
    "12": 74,
    "13": 77,
    "14": 78,
    "15": 83,
    "16": 88,
    "17": 96,
    "18": 98,
    "19": 104,
    "20": 106,
    "21": 110,
    "22": 2,
    "23": 8,
    "24": 16,
    "25": 21,
    "26": 29,
    "27": 34,
    "28": 39,
    "29": 47,
    "30": 54,
    "31": 56,
    "32": 67,
    "33": 69,
    "34": 76,
    "35": 84,
    "36": 95,
    "37": 97,
    "38": 107,
    "39": 108,
    "40": 116,
    "41": 122,
    "42": 132,
    "43": 133,
    "44": 139,
    "45": 146,
    "46": 8,
    "47": 11,
    "48": 20,
    "49": 23,
    "50": 25,
    "51": 31,
    "52": 38,
    "53": 39,
    "54": 46,
    "55": 51,
    "56": 55,
    "57": 59,
    "58": 63,
    "59": 66,
    "60": 70,
    "61": 73,
    "62": 78,
    "63": 82,
    "64": 87,
    "65": 92,
    "66": 95,
    "67": 103
  },
  "stop_by_id": {
    "0": 19,
    "1": 23,
    "2": 31,
    "3": 34,
    "4": 40,
    "5": 43,
    "6": 49,
    "7": 53,
    "8": 55,
    "9": 62,
    "10": 66,
    "11": 70,
    "12": 75,
    "13": 78,
    "14": 79,
    "15": 85,
    "16": 90,
    "17": 97,
    "18": 99,
    "19": 105,
    "20": 107,
    "21": 112,
    "22": 4,
    "23": 11,
    "24": 18,
    "25": 22,
    "26": 31,
    "27": 35,
    "28": 41,
    "29": 49,
    "30": 56,
    "31": 59,
    "32": 69,
    "33": 72,
    "34": 79,
    "35": 88,
    "36": 97,
    "37": 100,
    "38": 108,
    "39": 113,
    "40": 118,
    "41": 126,
    "42": 133,
    "43": 136,
    "44": 141,
    "45": 150,
    "46": 9,
    "47": 13,
    "48": 21,
    "49": 24,
    "50": 27,
    "51": 34,
    "52": 39,
    "53": 42,
    "54": 47,
    "55": 52,
    "56": 56,
    "57": 60,
    "58": 64,
    "59": 68,
    "60": 72,
    "61": 75,
    "62": 79,
    "63": 84,
    "64": 88,
    "65": 94,
    "66": 97,
    "67": 105
  },
  "language_by_group": {
    "Greetings": [
      "English",
      "Spanish",
      "French"
    ],
    "Personal Information": [
      "English",
      "Spanish"
    ]
  },
  "language_by_phrase": {
    "Greetings": {
      "English": 46,
      "Spanish": 1,
      "French": 47
    },
    "Hello": {
      "English": 48,
      "Spanish": 3,
      "French": 49
    },
    "Thank you very much": {
      "English": 50,
      "Spanish": 5,
      "French": 51
    },
    "Please": {
      "English": 52,
      "Spanish": 7,
      "French": 53
    },
    "Excuse me": {
      "English": 54,
      "Spanish": 9,
      "French": 55
    },
    "How are you?": {
      "English": 56,
      "Spanish": 11,
      "French": 57
    },
    "Welcome": {
      "English": 58,
      "Spanish": 13,
      "French": 59
    },
    "Good Morning": {
      "English": 60,
      "Spanish": 15,
      "French": 61
    },
    "Good Evening": {
      "English": 62,
      "Spanish": 17,
      "French": 63
    },
    "Good Bye": {
      "English": 64,
      "Spanish": 19,
      "French": 65
    },
    "See you later": {
      "English": 66,
      "Spanish": 21,
      "French": 67
    },
    "Personal information": {
      "English": 22,
      "Spanish": 23
    },
    "My name is": {
      "English": 24,
      "Spanish": 25
    },
    "It's nice to meet you": {
      "English": 26,
      "Spanish": 27
    },
    "Do you live here? ": {
      "English": 28,
      "Spanish": 29
    },
    "I am from England": {
      "English": 30,
      "Spanish": 31
    },
    "I am here on holiday": {
      "English": 32,
      "Spanish": 33
    },
    "I am here on business": {
      "English": 34,
      "Spanish": 35
    },
    "What do you do?": {
      "English": 36,
      "Spanish": 37
    },
    "I'm here to study": {
      "English": 38,
      "Spanish": 39
    },
    "What are you studying?": {
      "English": 40,
      "Spanish": 41
    },
    "How old are you?": {
      "English": 42,
      "Spanish": 43
    },
    "I'm single, are you?": {
      "English": 44,
      "Spanish": 45
    }
  },
  "phrase_by_group": {
    "Greetings": [
      "Greetings",
      "Hello",
      "Thank you very much",
      "Please",
      "Excuse me",
      "How are you?",
      "Welcome",
      "Good Morning",
      "Good Evening",
      "Good Bye",
      "See you later"
    ],
    "Personal Information": [
      "Personal information",
      "My name is",
      "It's nice to meet you",
      "Do you live here? ",
      "I am from England",
      "I am here on holiday",
      "I am here on business",
      "What do you do?",
      "I'm here to study",
      "What are you studying?",
      "How old are you?",
      "I'm single, are you?"
    ]
  },
  "phrase_by_language": {
    "English": {
      "Greetings": 46,
      "Hello": 48,
      "Thank you very much": 50,
      "Please": 52,
      "Excuse me": 54,
      "How are you?": 56,
      "Welcome": 58,
      "Good Morning": 60,
      "Good Evening": 62,
      "Good Bye": 64,
      "See you later": 66,
      "Personal information": 22,
      "My name is": 24,
      "It's nice to meet you": 26,
      "Do you live here? ": 28,
      "I am from England": 30,
      "I am here on holiday": 32,
      "I am here on business": 34,
      "What do you do?": 36,
      "I'm here to study": 38,
      "What are you studying?": 40,
      "How old are you?": 42,
      "I'm single, are you?": 44
    },
    "Spanish": {
      "Greetings": 1,
      "Hello": 3,
      "Thank you very much": 5,
      "Please": 7,
      "Excuse me": 9,
      "How are you?": 11,
      "Welcome": 13,
      "Good Morning": 15,
      "Good Evening": 17,
      "Good Bye": 19,
      "See you later": 21,
      "Personal information": 23,
      "My name is": 25,
      "It's nice to meet you": 27,
      "Do you live here? ": 29,
      "I am from England": 31,
      "I am here on holiday": 33,
      "I am here on business": 35,
      "What do you do?": 37,
      "I'm here to study": 39,
      "What are you studying?": 41,
      "How old are you?": 43,
      "I'm single, are you?": 45
    },
    "French": {
      "Greetings": 47,
      "Hello": 49,
      "Thank you very much": 51,
      "Please": 53,
      "Excuse me": 55,
      "How are you?": 57,
      "Welcome": 59,
      "Good Morning": 61,
      "Good Evening": 63,
      "Good Bye": 65,
      "See you later": 67
    }
  },
  "localized_phrase_by_id": {
    "0": "Greetings",
    "1": "Saludos",
    "2": "Hello",
    "3": "¡Hola",
    "4": "Thank you very much",
    "5": "Muchas gracias",
    "6": "Please",
    "7": "Por favor",
    "8": "Excuse me",
    "9": "Disculpe",
    "10": "How are you?",
    "11": "¿Cómo estás?",
    "12": "Welcome",
    "13": "bienvenida",
    "14": "Good Morning",
    "15": "¡Buenos Días",
    "16": "Good Evening",
    "17": "Buenas Noches",
    "18": "Good Bye",
    "19": "Adiós",
    "20": "See you later",
    "21": "¡Hasta luego",
    "22": "Personal information",
    "23": "Información personal",
    "24": "My name is",
    "25": "Mi nombre es",
    "26": "It's nice to meet you",
    "27": "Es un placer conocerte",
    "28": "Do you live here? ",
    "29": "¿Vive usted aquí?",
    "30": "I am from England",
    "31": "Soy de Inglaterra",
    "32": "I am here on holiday",
    "33": "Estoy aquí de vacaciones",
    "34": "I am here on business",
    "35": "Estoy aquí por negocios",
    "36": "What do you do?",
    "37": "¿Qué hacer?",
    "38": "I'm here to study",
    "39": "Yo estoy aquí para estudiar",
    "40": "What are you studying?",
    "41": "¿Qué estudias?",
    "42": "How old are you?",
    "43": "¿Cuántos años tienes?",
    "44": "I'm single, are you?",
    "45": "No tengo pareja, ¿verdad?",
    "46": "Greetings",
    "47": "Salutations",
    "48": "Hello",
    "49": "Salut",
    "50": "Thank you very much",
    "51": "Merci beaucoup",
    "52": "Please",
    "53": "S'il vous plaît",
    "54": "Excuse me",
    "55": "Excusez-moi",
    "56": "How are you?",
    "57": "Comment allez-vous?",
    "58": "Welcome",
    "59": "Bienvenue",
    "60": "Good Morning",
    "61": "Bonjour",
    "62": "Good Evening",
    "63": "Bonsoir",
    "64": "Good Bye",
    "65": "Au revoir",
    "66": "See you later",
    "67": "A tout à l'heure"
  },
  "localized_phrase_by_phrase": {
    "Greetings": {
      "English": "Greetings",
      "Spanish": "Saludos",
      "French": "Salutations"
    },
    "Hello": {
      "English": "Hello",
      "Spanish": "¡Hola",
      "French": "Salut"
    },
    "Thank you very much": {
      "English": "Thank you very much",
      "Spanish": "Muchas gracias",
      "French": "Merci beaucoup"
    },
    "Please": {
      "English": "Please",
      "Spanish": "Por favor",
      "French": "S'il vous plaît"
    },
    "Excuse me": {
      "English": "Excuse me",
      "Spanish": "Disculpe",
      "French": "Excusez-moi"
    },
    "How are you?": {
      "English": "How are you?",
      "Spanish": "¿Cómo estás?",
      "French": "Comment allez-vous?"
    },
    "Welcome": {
      "English": "Welcome",
      "Spanish": "bienvenida",
      "French": "Bienvenue"
    },
    "Good Morning": {
      "English": "Good Morning",
      "Spanish": "¡Buenos Días",
      "French": "Bonjour"
    },
    "Good Evening": {
      "English": "Good Evening",
      "Spanish": "Buenas Noches",
      "French": "Bonsoir"
    },
    "Good Bye": {
      "English": "Good Bye",
      "Spanish": "Adiós",
      "French": "Au revoir"
    },
    "See you later": {
      "English": "See you later",
      "Spanish": "¡Hasta luego",
      "French": "A tout à l'heure"
    },
    "Personal information": {
      "English": "Personal information",
      "Spanish": "Información personal"
    },
    "My name is": {
      "English": "My name is",
      "Spanish": "Mi nombre es"
    },
    "It's nice to meet you": {
      "English": "It's nice to meet you",
      "Spanish": "Es un placer conocerte"
    },
    "Do you live here? ": {
      "English": "Do you live here? ",
      "Spanish": "¿Vive usted aquí?"
    },
    "I am from England": {
      "English": "I am from England",
      "Spanish": "Soy de Inglaterra"
    },
    "I am here on holiday": {
      "English": "I am here on holiday",
      "Spanish": "Estoy aquí de vacaciones"
    },
    "I am here on business": {
      "English": "I am here on business",
      "Spanish": "Estoy aquí por negocios"
    },
    "What do you do?": {
      "English": "What do you do?",
      "Spanish": "¿Qué hacer?"
    },
    "I'm here to study": {
      "English": "I'm here to study",
      "Spanish": "Yo estoy aquí para estudiar"
    },
    "What are you studying?": {
      "English": "What are you studying?",
      "Spanish": "¿Qué estudias?"
    },
    "How old are you?": {
      "English": "How old are you?",
      "Spanish": "¿Cuántos años tienes?"
    },
    "I'm single, are you?": {
      "English": "I'm single, are you?",
      "Spanish": "No tengo pareja, ¿verdad?"
    }
  },
  "localized_phrase_by_language": {
    "English": "See you later",
    "Spanish": "No tengo pareja, ¿verdad?",
    "French": "A tout à l'heure"
  }
}